<?xml version="1.0" standalone="no"?>
<!DOCTYPE svg PUBLIC "-//W3C//DTD SVG 20010904//EN"
 "http://www.w3.org/TR/2001/REC-SVG-20010904/DTD/svg10.dtd">
<svg version="1.0" xmlns="http://www.w3.org/2000/svg"
 width="800.000000pt" height="533.000000pt" viewBox="0 0 800.000000 533.000000"
 preserveAspectRatio="xMidYMid meet">
<metadata>
Created by potrace 1.14, written by Peter Selinger 2001-2017
</metadata>
<g transform="translate(0.000000,533.000000) scale(0.100000,-0.100000)"
fill="#4d4d4d" stroke="none">
<path d="M7955 5270 c-3 -5 -1 -10 4 -10 6 0 11 5 11 10 0 6 -2 10 -4 10 -3 0
-8 -4 -11 -10z"/>
<path d="M5553 4815 c-35 -15 -39 -24 -48 -130 -3 -38 -13 -80 -21 -93 -14
-21 -13 -27 6 -65 17 -34 19 -48 11 -70 -6 -15 -19 -30 -28 -34 -10 -3 -33
-20 -50 -36 -31 -29 -34 -30 -46 -13 -13 18 -16 18 -63 2 -27 -9 -57 -25 -67
-36 -9 -11 -24 -20 -32 -20 -9 0 -15 -9 -15 -24 0 -24 -50 -76 -72 -76 -20 0
-89 -63 -112 -103 -27 -47 -68 -165 -61 -177 5 -8 -49 -50 -66 -50 -32 0 -932
-518 -1081 -621 -22 -16 -45 -19 -140 -19 -125 0 -204 18 -283 65 -52 30 -63
49 -99 167 -15 48 -31 90 -37 93 -5 4 -9 21 -9 40 0 19 -4 37 -10 40 -5 3 -10
17 -10 31 0 14 -6 24 -14 24 -10 0 -40 76 -95 245 l-80 245 17 55 c11 35 22
55 32 55 8 0 53 25 100 56 l85 56 143 -7 c91 -5 142 -4 142 3 0 14 -80 76
-115 90 -39 14 -256 18 -460 8 -127 -7 -185 -5 -282 8 -146 19 -217 20 -231 3
-45 -54 -9 -147 58 -147 11 0 47 -11 80 -25 33 -14 75 -25 95 -25 19 0 35 -4
35 -10 0 -5 9 -10 19 -10 11 0 23 -4 26 -10 3 -5 15 -10 26 -10 21 0 109 -75
109 -93 0 -6 6 -18 14 -26 24 -27 169 -484 159 -500 -8 -13 1 -55 24 -111 3
-8 7 -25 8 -37 1 -12 7 -28 13 -35 5 -7 22 -51 35 -98 14 -47 31 -102 38 -122
7 -21 10 -40 8 -42 -3 -3 -50 -15 -104 -26 -55 -12 -104 -25 -110 -30 -5 -4
-30 -11 -55 -14 -25 -4 -56 -13 -70 -20 -23 -13 -27 -11 -74 30 -27 25 -56 44
-64 42 -9 -2 -21 -22 -27 -48 -23 -91 -43 -102 -97 -52 -27 24 -43 35 -105 67
-18 9 -37 23 -44 31 -6 8 -18 14 -25 14 -8 0 -22 4 -32 9 -9 4 -39 18 -67 31
-27 13 -58 27 -67 31 -10 5 -26 9 -35 9 -10 0 -30 6 -44 14 -24 12 -77 26
-124 32 -11 2 -65 9 -120 17 -125 18 -403 12 -436 -9 -5 -3 -35 -9 -66 -14
-32 -5 -71 -16 -88 -24 -16 -8 -66 -29 -110 -45 -151 -58 -229 -105 -420 -256
-65 -51 -199 -200 -215 -238 -5 -12 -21 -40 -34 -62 -36 -59 -136 -258 -136
-271 0 -6 -10 -40 -21 -75 -59 -174 -86 -392 -70 -554 12 -111 55 -312 72
-329 5 -6 9 -17 9 -25 0 -22 39 -115 75 -181 17 -30 41 -76 55 -103 13 -26 29
-52 37 -58 7 -6 13 -18 13 -25 0 -8 4 -14 9 -14 5 0 24 -24 42 -52 19 -29 37
-54 41 -56 5 -2 8 -7 8 -12 0 -22 166 -167 229 -200 26 -14 61 -34 77 -45 47
-32 257 -131 309 -146 17 -4 54 -15 83 -23 132 -37 397 -55 552 -36 93 11 122
18 187 46 17 8 36 14 42 14 27 0 230 76 276 103 84 50 185 120 185 128 0 5 20
20 45 35 25 14 45 29 45 33 0 4 15 19 34 32 39 28 139 146 163 193 9 17 33 53
54 81 45 60 105 173 114 215 4 16 10 30 15 30 5 0 12 10 15 23 4 12 13 36 21
53 7 17 17 57 20 90 9 70 42 116 68 95 9 -7 13 -17 11 -22 -8 -12 32 -119 52
-141 10 -11 36 -29 57 -40 33 -17 50 -19 105 -13 93 9 161 30 208 64 42 30 93
106 93 139 0 18 11 19 175 26 96 4 180 4 185 1 7 -4 7 -13 0 -25 -15 -27 -13
-30 20 -30 21 0 34 8 47 28 10 15 26 33 35 40 30 22 39 48 28 78 -9 21 -6 39
11 83 12 31 26 64 31 74 11 23 11 23 -28 30 -32 6 -32 6 -54 -63 l-23 -70
-148 0 c-82 0 -149 1 -149 3 0 2 23 21 52 42 67 51 261 245 313 313 22 29 121
150 220 269 99 118 201 249 226 289 25 41 54 84 65 96 11 13 38 50 59 82 22
32 56 81 75 107 19 26 52 72 73 102 146 210 425 489 472 471 7 -3 17 -22 22
-42 6 -28 14 -38 32 -40 15 -2 21 -8 17 -18 -7 -17 41 -155 58 -169 18 -15
199 -506 189 -515 -4 -4 -48 -36 -98 -71 -107 -76 -241 -202 -290 -273 -20
-28 -49 -69 -65 -91 -37 -51 -126 -230 -135 -273 -4 -17 -11 -32 -16 -32 -5 0
-9 -15 -9 -34 0 -19 -4 -38 -10 -41 -5 -3 -10 -19 -10 -35 0 -16 -4 -32 -10
-35 -5 -3 -10 -19 -10 -36 0 -16 -4 -37 -10 -47 -26 -46 -34 -356 -12 -487 15
-88 32 -157 43 -170 5 -5 9 -19 9 -32 0 -22 18 -69 46 -125 8 -14 14 -33 14
-41 0 -8 7 -20 15 -27 8 -7 15 -22 15 -34 0 -12 9 -29 20 -39 11 -9 20 -25 20
-35 0 -10 19 -41 43 -70 23 -28 56 -70 74 -94 50 -68 142 -160 218 -219 38
-30 80 -64 93 -76 14 -13 28 -21 32 -18 4 3 19 -4 33 -15 14 -11 29 -20 33
-20 4 0 15 -7 25 -16 20 -18 69 -47 119 -70 19 -9 62 -29 95 -45 148 -69 295
-99 495 -99 132 0 204 13 275 49 21 12 48 21 60 21 18 0 83 30 190 88 22 12
44 22 48 22 5 0 40 22 78 50 38 27 71 50 74 50 6 0 25 14 59 45 12 11 34 26
49 34 15 8 27 20 27 28 0 7 6 13 13 13 18 0 49 34 40 43 -3 4 0 7 8 7 15 0 99
86 99 101 0 5 6 9 13 9 6 0 28 23 47 51 19 28 40 56 45 62 22 25 45 67 38 67
-5 0 -3 4 3 8 29 20 108 186 139 292 57 196 67 277 62 462 -5 158 -10 200 -42
333 -16 64 -76 236 -85 245 -3 3 -19 32 -35 65 -16 32 -42 79 -59 103 -17 24
-36 52 -42 63 -24 42 -177 209 -191 209 -5 0 -15 11 -21 25 -6 14 -18 25 -27
25 -8 0 -22 11 -31 25 -9 14 -25 25 -35 25 -10 0 -23 9 -29 20 -6 11 -19 20
-29 20 -9 0 -27 11 -39 25 -12 14 -31 25 -42 25 -11 0 -23 6 -26 14 -3 8 -18
18 -34 21 -16 3 -31 13 -34 21 -3 8 -16 14 -29 14 -13 0 -32 7 -43 15 -10 8
-29 15 -40 15 -12 0 -27 7 -34 15 -7 8 -23 15 -35 15 -13 0 -36 6 -52 14 -85
42 -322 61 -498 39 -55 -7 -126 -16 -158 -19 -32 -4 -60 -11 -63 -15 -11 -18
-22 -7 -39 39 -26 69 -41 82 -94 82 -25 0 -51 4 -57 8 -13 9 -100 260 -114
332 -14 71 -50 170 -62 170 -5 0 -19 -6 -31 -14 -24 -15 -110 -29 -102 -17 2
5 -7 18 -21 30 -25 21 -25 41 0 41 7 0 22 10 34 23 l21 22 -31 75 c-16 41 -47
111 -69 156 -21 44 -39 90 -39 102 0 12 -4 22 -10 22 -5 0 -10 11 -10 25 0 14
-4 25 -9 25 -5 0 -12 12 -16 28 -3 15 -13 34 -21 43 -13 15 -11 17 25 23 26 4
57 21 91 50 29 24 63 47 76 50 14 4 46 22 73 41 27 19 53 35 58 35 6 0 16 7
23 15 9 11 8 20 -9 44 -12 16 -31 33 -42 36 -18 6 -20 13 -17 58 3 42 0 55
-15 69 -14 12 -24 15 -37 8 -13 -7 -23 -3 -39 14 -20 21 -21 27 -11 72 14 63
7 90 -33 114 -38 23 -33 23 -74 5z m-293 -670 c-14 -16 32 -48 56 -38 11 4 15
2 11 -4 -4 -6 -21 -16 -39 -23 -18 -7 -68 -28 -111 -47 -43 -19 -80 -33 -83
-31 -8 9 31 93 51 110 11 9 37 22 58 29 21 7 40 16 43 21 3 5 10 6 15 2 6 -4
6 -10 -1 -19z m-229 -425 c34 -19 24 -68 -33 -163 -55 -93 -93 -130 -104 -102
-4 9 3 41 14 73 11 31 25 75 31 97 13 48 46 105 62 105 5 0 19 -5 30 -10z
m-223 -152 c-22 -62 -57 -158 -78 -213 -21 -55 -54 -149 -75 -210 -46 -136
-49 -142 -132 -250 -5 -5 -39 -53 -78 -105 -264 -361 -353 -468 -524 -633 -73
-69 -128 -113 -167 -132 -33 -15 -67 -32 -76 -37 -24 -11 -28 -10 -22 5 3 8
-4 38 -16 66 l-20 53 21 34 c11 19 24 34 27 34 31 2 63 120 76 280 5 59 11 80
30 100 20 21 26 44 36 135 18 152 6 354 -22 390 -11 14 -28 25 -38 25 -39 0
-28 19 31 54 77 46 636 326 789 396 63 29 142 65 175 80 61 28 85 38 96 39 3
1 -12 -50 -33 -111z m-1560 -450 c6 -23 10 -43 9 -43 -1 -1 -39 -12 -85 -24
-95 -27 -164 -24 -197 9 -17 18 -18 20 -2 20 9 0 17 4 17 9 0 5 10 13 23 17
12 3 29 12 37 19 22 19 78 33 136 34 l52 1 10 -42z m-1263 -74 c146 -27 275
-79 403 -160 29 -19 56 -34 60 -34 9 -1 85 -71 80 -75 -2 -1 -61 -44 -133 -95
-159 -114 -261 -190 -385 -289 -52 -42 -108 -83 -125 -91 -16 -8 -32 -18 -35
-21 -3 -4 -54 -12 -114 -18 -122 -14 -151 -25 -210 -84 -98 -98 -122 -166
-106 -305 5 -48 10 -92 10 -98 0 -6 9 -21 20 -34 15 -17 17 -27 9 -42 -13 -25
-8 -74 9 -71 6 2 12 -1 12 -5 0 -17 51 -32 88 -27 34 5 42 1 102 -55 72 -68
111 -93 133 -84 8 3 18 0 22 -6 6 -9 10 -9 16 1 6 10 11 6 18 -14 15 -39 14
-88 -3 -106 -15 -17 -37 -72 -62 -156 -8 -27 -19 -58 -25 -68 -6 -11 -8 -22
-4 -25 7 -7 161 -4 187 4 42 12 47 157 6 169 -17 6 -19 12 -12 48 3 23 14 53
23 66 11 18 15 45 14 100 -2 75 -15 116 -43 137 -12 10 -13 16 0 38 7 15 25
29 39 33 25 5 68 46 102 94 16 23 16 23 125 10 60 -6 217 -13 349 -15 132 -2
261 -7 286 -11 l45 -7 -7 -53 c-11 -82 -79 -249 -142 -350 -17 -27 -34 -52
-37 -55 -3 -3 -27 -32 -52 -65 -72 -94 -230 -235 -263 -235 -7 0 -15 -4 -17
-9 -1 -4 -57 -34 -123 -66 -104 -50 -138 -61 -255 -82 -110 -20 -154 -23 -240
-19 -102 6 -236 28 -269 45 -9 5 -33 11 -53 15 -21 4 -71 20 -112 37 -41 16
-82 31 -93 33 -29 6 -153 75 -196 109 -65 52 -96 87 -156 175 -67 100 -74 111
-105 182 -45 101 -56 133 -83 229 -24 87 -27 113 -27 281 l-1 185 44 130 c49
147 101 256 163 348 62 91 203 233 283 285 124 80 319 162 384 162 15 0 31 4
37 10 12 12 178 26 269 22 39 -2 106 -10 150 -18z m1237 -61 c73 -15 78 -18
84 -47 5 -17 7 -35 5 -40 -1 -5 2 -12 7 -15 14 -10 50 -168 63 -281 14 -127
17 -343 6 -462 l-9 -88 -43 0 c-23 0 -63 3 -89 6 l-46 7 0 66 c0 36 -6 78 -14
92 -7 14 -17 48 -21 74 -9 66 -42 170 -65 208 -11 18 -36 64 -56 104 -20 40
-43 78 -50 84 -8 6 -14 17 -14 24 0 6 -9 20 -20 30 -11 10 -20 23 -20 30 0 6
-11 22 -25 35 -14 13 -25 27 -25 32 0 5 -12 20 -27 33 -16 13 -26 25 -23 28
11 9 266 96 285 96 11 1 54 -6 97 -16z m412 -59 c9 -69 7 -143 -4 -164 -5 -10
-13 -50 -16 -89 -5 -56 -4 -75 9 -95 13 -20 15 -40 10 -106 -3 -44 -9 -83 -13
-85 -9 -6 -36 59 -53 124 -24 99 -3 403 31 444 23 26 29 21 36 -29z m3118
-228 c63 -17 171 -56 178 -65 3 -4 25 -15 50 -24 66 -25 194 -112 274 -187 94
-89 214 -270 262 -397 50 -134 74 -268 74 -409 0 -128 -24 -323 -46 -368 -8
-16 -14 -34 -14 -40 0 -11 -30 -72 -86 -174 -34 -63 -181 -242 -244 -298 -68
-61 -150 -124 -162 -124 -6 0 -26 -11 -44 -25 -18 -14 -37 -25 -43 -25 -6 0
-11 -4 -11 -9 0 -5 -15 -14 -32 -21 -49 -19 -89 -36 -129 -54 -92 -40 -164
-56 -265 -56 -55 0 -125 4 -155 10 -30 5 -67 11 -84 13 -16 3 -57 19 -90 36
-33 17 -66 31 -73 31 -17 0 -72 38 -89 61 -7 9 -29 24 -50 34 -21 10 -58 32
-83 49 -58 40 -237 221 -275 277 -17 24 -35 49 -41 56 -7 7 -20 33 -30 57 -11
25 -22 46 -26 46 -5 0 -8 4 -8 10 0 5 -12 35 -26 66 -36 79 -73 250 -80 374
-15 241 54 483 196 696 52 77 184 217 247 262 l31 22 15 -42 c8 -24 34 -97 56
-163 23 -66 46 -129 51 -140 5 -11 30 -76 55 -144 33 -90 43 -126 34 -132 -7
-4 -9 -15 -5 -24 4 -11 -2 -23 -18 -36 -47 -37 -71 -178 -42 -242 8 -17 14
-41 13 -52 -2 -17 4 -20 33 -20 32 0 38 -5 72 -60 21 -33 37 -66 38 -72 0 -7
5 -13 10 -13 6 0 25 -14 43 -31 66 -64 159 -91 267 -79 73 8 110 24 188 83 53
40 67 62 103 162 31 85 20 195 -28 290 -23 45 -69 95 -88 95 -6 0 -20 9 -29
19 -34 38 -114 63 -183 59 l-63 -4 -12 41 c-6 22 -15 45 -18 50 -4 6 -25 60
-46 120 -21 61 -42 112 -46 113 -4 2 -8 12 -8 21 0 15 -10 43 -55 156 -4 11
-9 27 -11 35 -2 8 -7 23 -13 35 -20 39 -40 110 -33 116 13 11 137 40 208 49
93 12 319 4 386 -14z m-4121 -23 c46 -49 159 -229 159 -253 0 -6 9 -24 19 -39
23 -32 61 -169 61 -218 0 -18 4 -33 9 -33 11 0 27 -108 18 -117 -8 -7 -433
-32 -556 -33 l-93 0 6 25 c4 14 2 25 -3 25 -5 0 -13 15 -16 33 -9 40 -56 116
-72 117 -7 0 -13 4 -13 9 0 5 -11 12 -25 15 -15 4 -25 14 -25 24 0 9 60 76
133 149 133 132 347 331 357 332 3 1 22 -16 41 -36z"/>
</g>
</svg>
