<?xml version="1.0" standalone="no"?>
<!DOCTYPE svg PUBLIC "-//W3C//DTD SVG 20010904//EN"
 "http://www.w3.org/TR/2001/REC-SVG-20010904/DTD/svg10.dtd">
<svg version="1.0" xmlns="http://www.w3.org/2000/svg"
 width="563.000000pt" height="388.000000pt" viewBox="0 0 563.000000 388.000000"
 preserveAspectRatio="xMidYMid meet">
<metadata>
Created by potrace 1.14, written by Peter Selinger 2001-2017
</metadata>
<g transform="translate(0.000000,388.000000) scale(0.100000,-0.100000)"
fill="#4d4d4d" stroke="none">
<path d="M2775 3631 c-11 -4 -40 -11 -65 -14 -114 -15 -172 -31 -259 -74 -120
-59 -220 -134 -353 -264 -87 -85 -113 -117 -140 -174 -31 -66 -33 -77 -33
-176 0 -115 10 -140 62 -160 12 -4 27 -17 33 -29 10 -18 8 -20 -18 -20 -38 0
-79 20 -93 48 -10 18 -21 22 -60 22 -67 0 -79 -7 -79 -44 1 -52 21 -69 72 -61
64 11 100 8 110 -9 5 -9 18 -16 28 -16 11 0 20 -4 20 -9 0 -5 9 -12 19 -16 11
-3 22 -12 24 -20 5 -11 -13 -15 -84 -21 -49 -3 -89 -9 -89 -13 0 -3 7 -31 16
-61 9 -30 17 -62 18 -70 2 -15 48 -206 112 -469 l33 -134 -50 -56 c-27 -30
-49 -60 -49 -67 0 -6 10 -19 23 -27 16 -12 18 -16 6 -16 -8 -1 -29 14 -45 33
-65 73 -220 154 -362 187 -109 26 -296 22 -407 -9 -591 -165 -828 -860 -461
-1349 94 -125 249 -237 386 -279 47 -14 99 -31 115 -37 18 -7 93 -12 190 -12
140 0 169 3 229 23 219 73 413 239 515 440 l22 43 62 -54 c120 -105 241 -103
357 6 55 52 74 56 134 28 54 -25 107 -35 184 -35 50 0 67 4 83 21 19 19 20 23
8 49 -9 18 -25 31 -44 35 -42 10 -133 56 -176 90 -19 15 -47 33 -62 40 -17 8
-36 32 -52 65 l-25 53 78 83 c43 46 188 200 323 343 402 428 403 428 430 420
22 -6 49 -31 49 -44 0 -3 -30 -24 -66 -46 -83 -50 -208 -180 -262 -271 -161
-272 -161 -608 0 -878 45 -75 190 -228 255 -269 159 -100 246 -126 444 -134
120 -5 146 -3 225 17 49 13 93 27 98 32 6 4 16 8 23 8 8 0 19 5 26 11 7 6 38
25 70 42 219 121 382 378 407 643 42 449 -255 840 -704 924 -82 15 -249 8
-318 -13 l-46 -15 -16 49 c-9 26 -16 54 -16 63 0 20 105 29 318 24 l172 -3 -6
55 c-4 43 -1 65 15 103 25 58 18 80 -34 98 -24 9 -36 20 -40 40 -11 49 -26 54
-204 59 -165 5 -165 5 -106 18 378 80 379 80 478 131 89 47 101 50 161 49 38
-2 70 3 79 10 8 7 21 10 30 7 9 -4 23 4 35 19 11 14 25 26 31 26 6 0 11 13 11
29 0 20 -12 41 -39 69 -34 35 -47 41 -110 52 -38 6 -75 9 -81 5 -6 -4 -52 -11
-103 -15 -51 -5 -132 -20 -182 -34 -74 -21 -113 -25 -220 -25 l-130 -1 -35 72
c-19 40 -42 80 -51 89 -9 9 -18 35 -21 58 -3 37 -1 42 14 38 11 -3 18 0 18 9
0 26 15 14 43 -37 32 -58 48 -67 82 -45 13 9 31 16 38 16 8 0 20 6 27 14 6 8
18 12 26 9 8 -3 14 0 14 6 0 6 9 11 20 11 11 0 20 -4 20 -10 0 -24 42 -9 54
20 11 27 86 82 86 63 0 -4 7 2 15 13 14 19 14 18 15 -3 0 -30 9 -29 66 10 35
24 52 44 58 68 5 19 13 36 16 39 13 10 30 74 30 115 0 47 -23 132 -51 186 -50
99 -181 184 -300 195 -77 8 -95 0 -132 -54 -21 -30 -26 -45 -21 -70 5 -26 11
-32 31 -32 22 0 24 -2 13 -15 -14 -17 -56 -20 -65 -5 -11 17 -31 11 -86 -25
-59 -39 -104 -46 -113 -17 -14 44 -161 152 -207 152 -15 0 -68 14 -116 31 -80
27 -103 30 -243 35 -85 2 -164 0 -175 -5z m150 -677 c45 -14 231 -22 288 -12
13 2 23 -14 45 -77 34 -98 86 -176 245 -373 20 -26 37 -52 37 -58 0 -6 6 -17
14 -23 22 -18 8 -48 -25 -55 -16 -3 -35 -10 -42 -16 -6 -6 -46 -33 -89 -60
-76 -50 -76 -50 -161 -50 -82 0 -84 1 -96 27 -7 15 -30 42 -51 60 -21 19 -41
46 -45 63 -7 31 -131 194 -210 277 -26 26 -51 56 -56 65 -5 10 -52 51 -104 93
-88 70 -115 99 -115 124 0 17 37 22 82 11 33 -8 63 -7 128 4 47 7 90 14 95 15
6 0 33 -6 60 -15z m-697 -497 c61 -93 193 -252 209 -252 6 0 14 -3 17 -6 4 -3
-51 -9 -121 -13 -70 -4 -151 -9 -178 -12 l-50 -6 -28 114 c-15 62 -27 120 -27
128 0 13 108 130 120 130 3 0 29 -38 58 -83z m305 -363 c19 -25 19 -26 -10
-67 -65 -97 -232 -241 -300 -262 -19 -5 -23 -2 -23 17 0 13 -11 66 -25 118
-14 52 -25 101 -25 108 0 7 21 35 46 62 l47 50 136 0 c134 -1 136 -1 154 -26z
m661 -26 c38 -18 46 -27 55 -65 8 -28 8 -50 2 -61 -8 -15 -77 -81 -116 -111
-5 -4 -103 -107 -217 -229 -115 -122 -208 -218 -208 -214 0 4 27 105 60 225
40 148 65 223 77 233 10 7 56 39 103 71 46 32 109 83 140 114 30 31 56 57 57
58 1 0 22 -9 47 -21z m828 -383 c364 -77 590 -470 472 -819 -30 -88 -111 -213
-179 -274 -64 -58 -177 -120 -253 -138 -75 -18 -241 -17 -319 1 -86 20 -233
93 -233 116 0 5 -4 9 -9 9 -26 0 -114 107 -153 185 -31 61 -78 254 -78 318 0
200 131 425 309 530 31 18 31 18 40 -5 18 -47 103 -244 121 -282 15 -31 16
-42 7 -57 -7 -11 -17 -19 -24 -19 -18 0 -53 -50 -53 -76 0 -15 6 -24 15 -24
18 0 18 -8 1 -39 -11 -21 -11 -30 0 -57 8 -19 14 -42 14 -52 0 -10 9 -28 20
-40 11 -12 20 -24 20 -27 0 -3 10 -15 22 -27 25 -25 65 -28 181 -13 55 7 59 9
77 48 26 53 26 102 0 120 -12 8 -21 30 -25 58 -11 81 -14 87 -46 98 -17 6 -35
8 -40 6 -10 -7 -31 34 -53 105 -10 30 -22 64 -27 75 -5 11 -27 74 -49 140 -22
66 -45 122 -50 123 -6 2 -10 8 -10 13 0 6 3 8 8 6 4 -3 27 -1 52 3 74 12 171
11 242 -5z m-1532 -22 c0 -5 -12 -111 -26 -237 -21 -179 -25 -233 -16 -247 10
-16 9 -19 -7 -19 -10 0 -32 3 -49 6 -27 5 -30 11 -36 54 -4 27 -13 61 -21 77
-8 15 -15 33 -15 38 0 6 -11 46 -25 89 -20 64 -23 82 -13 94 16 19 190 151
201 151 4 1 7 -2 7 -6z"/>
</g>
</svg>
