<?xml version="1.0" standalone="no"?>
<!DOCTYPE svg PUBLIC "-//W3C//DTD SVG 20010904//EN"
 "http://www.w3.org/TR/2001/REC-SVG-20010904/DTD/svg10.dtd">
<svg version="1.0" xmlns="http://www.w3.org/2000/svg"
 width="1014.000000pt" height="699.000000pt" viewBox="0 0 1014.000000 699.000000"
 preserveAspectRatio="xMidYMid meet">
<metadata>
Created by potrace 1.14, written by Peter Selinger 2001-2017
</metadata>
<g transform="translate(0.000000,699.000000) scale(0.100000,-0.100000)"
fill="#f2f2f2" stroke="none">
<path d="M3555 6739 c-172 -20 -247 -29 -315 -39 -119 -17 -298 -57 -378 -85
-41 -14 -79 -25 -85 -25 -7 0 -39 -14 -72 -30 -33 -16 -65 -30 -72 -30 -64 -1
-362 -192 -443 -284 -92 -105 -118 -138 -180 -234 -125 -193 -138 -216 -193
-327 -29 -60 -81 -164 -114 -230 -70 -138 -103 -233 -86 -243 6 -4 14 -23 18
-43 5 -26 18 -45 48 -67 22 -18 45 -32 49 -32 5 0 19 22 32 49 25 55 60 101
124 167 l42 44 89 0 c103 0 320 -16 406 -29 33 -6 114 -20 180 -32 66 -11 145
-25 175 -30 74 -13 172 -36 245 -59 70 -22 154 -45 245 -67 36 -8 79 -22 95
-31 17 -8 50 -21 75 -28 74 -21 278 -98 329 -124 35 -18 129 -58 176 -75 60
-22 351 -164 460 -223 17 -10 32 -19 35 -22 3 -3 30 -17 60 -32 30 -15 78 -41
105 -56 95 -54 160 -90 219 -122 33 -17 73 -42 90 -55 17 -13 60 -40 96 -61
36 -20 67 -40 70 -43 3 -3 25 -17 50 -30 64 -34 364 -232 368 -243 2 -5 18
-15 35 -22 18 -7 70 -42 117 -77 47 -35 97 -70 112 -79 14 -8 37 -23 50 -32
13 -10 64 -48 115 -85 167 -123 295 -219 360 -269 17 -14 45 -35 62 -47 52
-37 324 -260 351 -287 14 -14 41 -37 60 -50 51 -36 290 -230 340 -277 14 -13
75 -67 136 -121 61 -53 138 -121 170 -150 33 -28 71 -70 85 -92 24 -40 42 -49
55 -29 3 6 30 26 59 44 29 19 61 42 71 52 9 10 30 27 45 38 42 31 220 182 257
218 55 53 91 116 124 216 31 92 32 102 32 266 1 135 -3 182 -16 227 -10 31
-18 69 -18 85 0 17 -9 56 -21 89 -11 32 -26 84 -34 114 -17 69 -32 107 -101
258 -20 45 -43 87 -50 93 -7 6 -16 23 -19 39 -4 16 -29 65 -56 110 -27 45 -49
84 -49 88 0 7 -25 46 -130 202 -24 36 -57 79 -73 95 -15 17 -45 55 -66 85 -21
30 -59 78 -85 105 -25 28 -46 53 -46 57 0 4 -6 13 -13 20 -7 7 -20 23 -28 35
-81 118 -583 608 -711 696 -20 13 -60 44 -90 69 -29 25 -80 64 -113 87 -33 22
-87 64 -120 91 -33 27 -64 49 -69 50 -5 0 -24 11 -42 25 -42 32 -354 225 -364
225 -4 0 -34 17 -67 39 -71 46 -302 163 -358 181 -22 7 -58 23 -80 35 -22 12
-76 35 -120 50 -44 15 -98 36 -120 47 -58 30 -252 95 -315 107 -30 5 -86 19
-125 30 -38 12 -80 21 -93 21 -12 0 -48 9 -80 19 -56 19 -113 30 -277 51 -44
6 -114 15 -155 21 -89 13 -390 18 -475 8z"/>
<path d="M5261 1304 c-22 -37 -27 -69 -12 -79 5 -3 9 -47 8 -98 -1 -74 3 -101
19 -137 25 -54 73 -110 126 -146 46 -32 48 -52 8 -97 -16 -19 -30 -39 -30 -44
0 -5 -17 -27 -37 -48 -44 -46 -80 -99 -118 -174 -22 -45 -26 -61 -20 -102 7
-51 47 -117 87 -143 13 -8 52 -25 88 -37 71 -25 144 -29 293 -14 90 8 92 9
169 77 17 16 34 28 38 28 14 0 93 108 107 146 25 68 63 208 63 232 0 51 54 31
87 -31 8 -16 13 -43 11 -60 -3 -27 1 -33 25 -41 26 -9 32 -7 55 22 15 18 33
32 40 32 7 0 17 12 22 26 13 33 -7 94 -30 94 -15 0 -68 84 -82 130 -5 15 -23
32 -47 44 -37 17 -40 17 -65 1 -25 -17 -26 -17 -26 3 0 13 -12 28 -30 39 -16
9 -30 21 -30 25 0 4 -7 8 -15 8 -8 0 -15 4 -15 9 0 11 -38 22 -42 12 -2 -4
-28 -19 -58 -34 -30 -15 -63 -32 -72 -39 -27 -19 -33 -1 -18 50 8 26 15 76 15
110 0 55 -3 66 -24 83 -35 28 -80 24 -124 -12 -20 -17 -37 -35 -37 -40 0 -6
-11 -22 -25 -36 -13 -15 -27 -40 -30 -55 -8 -33 -18 -34 -78 -8 -54 24 -97 72
-97 108 0 15 -7 47 -16 71 -9 27 -13 64 -11 92 8 76 -35 96 -72 33z"/>
</g>
</svg>
